digraph Tree {
node [shape=box, style="filled, rounded", color="black", fontname=helvetica] ;
edge [fontname=helvetica] ;
0 [label="x1 <= 0.1973\nmse = 0.0978\nsamples = 200\nvalue = 0.3539", fillcolor="#e5813950"] ;
1 [label="x1 <= 0.0917\nmse = 0.0377\nsamples = 44\nvalue = 0.6894", fillcolor="#e58139b3"] ;
0 -> 1 [labeldistance=2.5, labelangle=45, headlabel="True"] ;
2 [label="x1 <= 0.0458\nmse = 0.0176\nsamples = 20\nvalue = 0.8539", fillcolor="#e58139e3"] ;
1 -> 2 ;
3 [label="mse = 0.0118\nsamples = 10\nvalue = 0.947", fillcolor="#e58139ff"] ;
2 -> 3 ;
4 [label="mse = 0.006\nsamples = 10\nvalue = 0.7608", fillcolor="#e58139c8"] ;
2 -> 4 ;
5 [label="x1 <= 0.1298\nmse = 0.0131\nsamples = 24\nvalue = 0.5522", fillcolor="#e581398a"] ;
1 -> 5 ;
6 [label="mse = 0.0073\nsamples = 9\nvalue = 0.6332", fillcolor="#e58139a2"] ;
5 -> 6 ;
7 [label="mse = 0.0102\nsamples = 15\nvalue = 0.5036", fillcolor="#e581397c"] ;
5 -> 7 ;
8 [label="x1 <= 0.7718\nmse = 0.074\nsamples = 156\nvalue = 0.2592", fillcolor="#e5813934"] ;
0 -> 8 [labeldistance=2.5, labelangle=-45, headlabel="False"] ;
9 [label="x1 <= 0.2873\nmse = 0.0151\nsamples = 110\nvalue = 0.1106", fillcolor="#e5813908"] ;
8 -> 9 ;
10 [label="mse = 0.0058\nsamples = 19\nvalue = 0.236", fillcolor="#e581392d"] ;
9 -> 10 ;
11 [label="mse = 0.0131\nsamples = 91\nvalue = 0.0845", fillcolor="#e5813900"] ;
9 -> 11 ;
12 [label="x1 <= 0.904\nmse = 0.0359\nsamples = 46\nvalue = 0.6146", fillcolor="#e581399d"] ;
8 -> 12 ;
13 [label="mse = 0.0118\nsamples = 28\nvalue = 0.4885", fillcolor="#e5813977"] ;
12 -> 13 ;
14 [label="mse = 0.0101\nsamples = 18\nvalue = 0.8107", fillcolor="#e58139d7"] ;
12 -> 14 ;
}